{
  "name": "createLocERP",
  "description": "Blank Process",
  "main": "Main.xaml",
  "dependencies": {
    "Microsoft.Activities.Extensions": "[2.0.6.9]",
    "UiPath.Database.Activities": "[1.2.6863.32528]",
    "UiPath.Excel.Activities": "[2.4.6884.25683]",
    "UiPath.Mail.Activities": "[1.2.6863.29868]",
    "UiPath.System.Activities": "[18.4.1]",
    "UiPath.UIAutomation.Activities": "[18.4.2]",
    "UiPath.Word.Activities": "[1.3.3]"
  },
  "webServices": [],
  "schemaVersion": "4.0",
  "studioVersion": "19.8.0.0",
  "projectVersion": "1.0.1",
  "runtimeOptions": {
    "autoDispose": false,
    "isPausable": true,
    "requiresUserInteraction": true,
    "supportsPersistence": false,
    "excludedLoggedData": [
      "Private:*",
      "*password*"
    ],
    "executionType": "Workflow"
  },
  "designOptions": {
    "projectProfile": "Developement",
    "outputType": "Process",
    "libraryOptions": {
      "includeOriginalXaml": false,
      "privateWorkflows": []
    }
  },
  "arguments": {
    "input": [],
    "output": []
  },
  "expressionLanguage": "VisualBasic"
}